Django==1.11.5
django-debug-toolbar==1.8
djangorestframework==3.6.4
et-xmlfile==1.0.1
jdcal==1.3
json2xlsx==1.3
olefile==0.44
openpyxl==2.4.8
Pillow==4.3.0
psycopg2==2.7.3.1
pyparsing==2.2.0
pytz==2017.2
sqlparse==0.2.4
xlrd==1.1.0
